{"count":1327,"next":"http://api.waypoints.briansdojo.co.uk/api/bookmarks/bookmarks/?limit=30&offset=30","previous":null,"results":[{"id":1330,"url":"https://www.reddit.com/r/Python/comments/6e5jk2/what_are_some_python_librariesmodules_thatd_have/di7u1pa/","title":"What are some python libraries that haven't been developed","saved":"2017-06-02T08:03:43.095372Z","deleted":false,"comment":"","tags":[{"id":191,"name":"github"},{"id":652,"name":"opensource"},{"id":1078,"name":"contributing"}]},{"id":1329,"url":"https://thatoneprivacysite.net/choosing-the-best-vpn-for-you/","title":"That One Privacy Site | Choosing A VPN","saved":"2017-05-31T08:30:52.996352Z","deleted":false,"comment":"","tags":[{"id":117,"name":"privacy"},{"id":596,"name":"vpn privacy"},{"id":1077,"name":"vpn"}]},{"id":1328,"url":"https://krebsonsecurity.com/2017/03/post-fcc-privacy-rules-should-you-vpn/","title":"Post-FCC Privacy Rules, Should You VPN? —  Krebs on Security","saved":"2017-05-31T08:29:53.941202Z","deleted":false,"comment":"","tags":[{"id":117,"name":"privacy"},{"id":596,"name":"vpn privacy"},{"id":1077,"name":"vpn"}]},{"id":1327,"url":"https://www.mongodb.com/blog/post/thinking-documents-part-1?jmp=docs","title":"Thinking in Documents: Part 1  | MongoDB","saved":"2017-05-25T15:21:42.581001Z","deleted":false,"comment":"","tags":[{"id":518,"name":"database modelling"},{"id":1075,"name":"mongo"},{"id":1076,"name":"mongodb"}]},{"id":1326,"url":"https://www.yworks.com/products/yed","title":"yEd - Graph Editor","saved":"2017-05-25T14:39:39.607386Z","deleted":false,"comment":"","tags":[{"id":481,"name":"diagram"},{"id":518,"name":"database modelling"}]},{"id":1325,"url":"https://medium.com/@darrenjennings/data-driven-vue-js-53e84f16e28f","title":"Data Driven vue.js","saved":"2017-05-21T14:37:46.614846Z","deleted":false,"comment":"","tags":[{"id":90,"name":"javascript"},{"id":1074,"name":"vue.js"}]},{"id":1324,"url":"https://medium.com/@enjalot/the-hitchhikers-guide-to-d3-js-a8552174733a","title":"The Hitchhiler's Guide To d3.js","saved":"2017-05-21T14:37:07.673875Z","deleted":false,"comment":"","tags":[{"id":90,"name":"javascript"},{"id":1022,"name":"d3"}]},{"id":1323,"url":"https://rock-it.pl/how-to-profile-django-views/","title":"How to profile Django views","saved":"2017-05-12T09:54:53.625034Z","deleted":false,"comment":"","tags":[{"id":11,"name":"python"},{"id":26,"name":"django"},{"id":80,"name":"profiling"},{"id":81,"name":"performance"},{"id":190,"name":"django performance"}]},{"id":1322,"url":"https://opensource.com/article/17/5/4-practical-python-libraries","title":"4 Python libraries for building great command-line user interfaces | Opensource.com","saved":"2017-05-12T09:52:09.803177Z","deleted":false,"comment":"","tags":[{"id":11,"name":"python"},{"id":300,"name":"cli"}]},{"id":1321,"url":"https://hackernoon.com/all-you-need-to-know-about-prefetching-in-django-f9068ebe1e60","title":"All you need to know about prefetching in Django","saved":"2017-05-05T14:27:15.151509Z","deleted":false,"comment":"","tags":[{"id":26,"name":"django"},{"id":190,"name":"django performance"},{"id":1073,"name":"django-prefetch"}]},{"id":1320,"url":"https://realpython.com/blog/python/test-driven-development-of-a-django-restful-api/","title":"Test Driven Development of a Django RESTful API - Real Python","saved":"2017-05-05T14:20:25.030254Z","deleted":false,"comment":"","tags":[{"id":25,"name":"testing"},{"id":26,"name":"django"},{"id":206,"name":"django-testing"},{"id":378,"name":"tdd"}]},{"id":1319,"url":"https://www.datascience.com/blog/learn-data-science-intro-to-data-visualization-in-matplotlib","title":"Creating Data Visualisations With Matplotlib","saved":"2017-05-05T14:19:12.095452Z","deleted":false,"comment":"","tags":[{"id":11,"name":"python"},{"id":212,"name":"matplotlib"},{"id":1023,"name":"visualisation"},{"id":1072,"name":"python-data-visualisation"}]},{"id":1318,"url":"https://seaborn.pydata.org/","title":"Seaborn: Statistical Data Visualisation With Python","saved":"2017-05-05T14:18:11.032836Z","deleted":false,"comment":"","tags":[{"id":11,"name":"python"},{"id":39,"name":"data visualisation"},{"id":212,"name":"matplotlib"},{"id":1023,"name":"visualisation"},{"id":1072,"name":"python-data-visualisation"}]},{"id":1317,"url":"https://semaphoreci.com/community/tutorials/generating-fake-data-for-python-unit-tests-with-faker","title":"Generating Fake Data for Python Unit Tests with Faker - Semaphore","saved":"2017-05-05T11:43:43.960531Z","deleted":false,"comment":"","tags":[{"id":11,"name":"python"},{"id":25,"name":"testing"},{"id":292,"name":"faker"},{"id":473,"name":"python-testing"}]},{"id":1316,"url":"https://m.signalvnoise.com/the-9-questions-that-uncover-the-most-surprising-insights-from-employees-b7bc0d20ede8","title":"The 9 questions that uncover the most surprising in sights from employees","saved":"2017-05-04T08:28:50.808946Z","deleted":false,"comment":"","tags":[{"id":896,"name":"management"}]},{"id":1315,"url":"https://github.com/MunGell/awesome-for-beginners","title":"GitHub - MunGell/awesome-for-beginners: A list of awesome beginners-friendly projects.","saved":"2017-04-27T11:21:06.091874Z","deleted":false,"comment":"","tags":[{"id":191,"name":"github"},{"id":652,"name":"opensource"}]},{"id":1314,"url":"https://github.com/donnemartin/system-design-primer","title":"GitHub - donnemartin/system-design-primer: Learn how to design large-scale systems. Prep for the system design interview.  Includes Anki flashcards.","saved":"2017-04-18T12:20:07.966198Z","deleted":false,"comment":"","tags":[{"id":191,"name":"github"},{"id":1070,"name":"systemdesign"},{"id":1071,"name":"system-design"}]},{"id":1313,"url":"http://darebee.com/","title":"DAREBEE - Fitness Made Easy","saved":"2017-04-15T19:23:54.307052Z","deleted":false,"comment":"","tags":[{"id":99,"name":"fitness"},{"id":100,"name":"bodyweightfitness"},{"id":1069,"name":"workout"}]},{"id":1312,"url":"https://imgur.com/gallery/nCipc","title":"Superhero-themed Visual Workouts - Album on Imgur","saved":"2017-04-15T19:23:10.260455Z","deleted":false,"comment":"","tags":[{"id":99,"name":"fitness"},{"id":100,"name":"bodyweightfitness"},{"id":1069,"name":"workout"}]},{"id":1311,"url":"https://imgur.com/gallery/wF6cr","title":"The ultimate workout compilation! (Part 1, 49 workouts) - Album on Imgur","saved":"2017-04-15T19:21:14.475877Z","deleted":false,"comment":"","tags":[{"id":99,"name":"fitness"},{"id":100,"name":"bodyweightfitness"},{"id":1069,"name":"workout"}]},{"id":1310,"url":"https://premium.wpmudev.org/blog/improving-wordpress-search/","title":"4 Powerful Ways To Improve WordPress Search","saved":"2017-04-05T12:30:36.320786Z","deleted":false,"comment":"","tags":[{"id":328,"name":"search"},{"id":759,"name":"wordpress"}]},{"id":1309,"url":"http://www.sparringmind.com/best-web-analytics/","title":"Top 10 Best Web Analytic Tools","saved":"2017-03-31T13:37:07.120664Z","deleted":false,"comment":"","tags":[{"id":500,"name":"analytics"},{"id":1068,"name":"cloudfare"}]},{"id":1308,"url":"https://www.templatemonster.com/blog/why-use-wordpress-for-my-website/","title":"Why Wordpress? Pros & Cons","saved":"2017-03-30T15:10:15.523713Z","deleted":false,"comment":"","tags":[{"id":759,"name":"wordpress"},{"id":1067,"name":"cms"}]},{"id":1307,"url":"https://www.joedog.org/siege-home/","title":"Siege Home - HTTP Load Tester","saved":"2017-03-27T09:22:15.984883Z","deleted":false,"comment":"","tags":[{"id":81,"name":"performance"},{"id":466,"name":"load-test"},{"id":1066,"name":"siege"}]},{"id":1306,"url":"https://helgeklein.com/blog/2013/07/analyzing-a-slow-boot-with-windows-performance-recorder-analyzer/","title":"Analysing a Slow Boot with Windows Performance Recorder","saved":"2017-03-24T10:22:00.246804Z","deleted":false,"comment":"","tags":[{"id":80,"name":"profiling"},{"id":81,"name":"performance"},{"id":143,"name":"windows"}]},{"id":1305,"url":"https://www.server-world.info/en/note?os=Ubuntu_16.04&p=ntp","title":"Ubuntu 16.04: Admin stuff","saved":"2017-03-23T08:51:18.624774Z","deleted":false,"comment":"","tags":[{"id":5,"name":"linux"},{"id":7,"name":"sysadmin"},{"id":8,"name":"ubuntu"},{"id":788,"name":"linux sysadmin"}]},{"id":1304,"url":"https://github.com/Microsoft/vscode-tips-and-tricks","title":"VS-Code Tips & Tricks","saved":"2017-03-22T11:39:08.454635Z","deleted":false,"comment":"","tags":[{"id":721,"name":"editor"},{"id":1065,"name":"vscode"}]},{"id":1303,"url":"https://www.typescriptlang.org/docs/handbook/declaration-files/do-s-and-don-ts.html","title":"Do's and Don'ts - Typescript","saved":"2017-03-22T11:32:29.971033Z","deleted":false,"comment":"","tags":[{"id":1063,"name":"typescript"},{"id":1064,"name":"style-guide"}]},{"id":1302,"url":"http://programmer.97things.oreilly.com/wiki/index.php/Contributions_Appearing_in_the_Book","title":"97 Things Every Programmer Should Know","saved":"2017-03-20T16:21:07.180075Z","deleted":false,"comment":"","tags":[{"id":76,"name":"tutorial"},{"id":77,"name":"programming"}]},{"id":1301,"url":"https://github.com/bjankord/stylelint-config-sass-guidelines/wiki/Lint-Report-Comparison","title":"GitHub - SCSS-Lint - Styleline rule comparison","saved":"2017-03-14T16:51:36.372466Z","deleted":false,"comment":"","tags":[{"id":23,"name":"sass"},{"id":131,"name":"scss"},{"id":1062,"name":"linting"}]}]}
